%YAML 1.1
%TAG !u! tag:unity3d.com,2011:
--- !u!114 &11400000
MonoBehaviour:
  m_ObjectHideFlags: 0
  m_CorrespondingSourceObject: {fileID: 0}
  m_PrefabInstance: {fileID: 0}
  m_PrefabAsset: {fileID: 0}
  m_GameObject: {fileID: 0}
  m_Enabled: 1
  m_EditorHideFlags: 0
  m_Script: {fileID: 11500000, guid: 7f601990683df6940923cfab72b3b098, type: 3}
  m_Name: 2HourHeroExpPotionB4
  m_EditorClassIdentifier: 
  expiditionDuration: 2
  expiditionFinishTime: 60755
  expiditionType: 1
  expiditionDifficulty: 3
  goldReward: 500
  expiditionRewards: 02000000
  averageRewardAmount: 0c000000
  dispatchedHeroes:
  - {fileID: 11400000, guid: 4e0b1ab6cdf759647966d36b2df22a2a, type: 2}
