%YAML 1.1
%TAG !u! tag:unity3d.com,2011:
--- !u!114 &11400000
MonoBehaviour:
  m_ObjectHideFlags: 0
  m_CorrespondingSourceObject: {fileID: 0}
  m_PrefabInstance: {fileID: 0}
  m_PrefabAsset: {fileID: 0}
  m_GameObject: {fileID: 0}
  m_Enabled: 1
  m_EditorHideFlags: 0
  m_Script: {fileID: 11500000, guid: 7f601990683df6940923cfab72b3b098, type: 3}
  m_Name: 2HourHeroExp
  m_EditorClassIdentifier: 
  expiditionDuration: 2
  expiditionFinishTime: 0
  expiditionType: 1
  expiditionDifficulty: 0
  goldReward: 500
  expiditionRewards: 02000000
  averageRewardAmount: 0a000000
  dispatchedHeroes: []
