%YAML 1.1
%TAG !u! tag:unity3d.com,2011:
--- !u!114 &11400000
MonoBehaviour:
  m_ObjectHideFlags: 0
  m_CorrespondingSourceObject: {fileID: 0}
  m_PrefabInstance: {fileID: 0}
  m_PrefabAsset: {fileID: 0}
  m_GameObject: {fileID: 0}
  m_Enabled: 1
  m_EditorHideFlags: 0
  m_Script: {fileID: 11500000, guid: 4936331be05050845b4045874cff835b, type: 3}
  m_Name: Hero_Peter
  m_EditorClassIdentifier: 
  prefab: {fileID: 5364804981758500472, guid: 2f67e8080b1549c4faa35f4ca869301a, type: 3}
  attackProjectile: {fileID: 0}
  uiname: Peter
  heroID: Peter
  heroClass: 9
  heroClass_2: 0
  heroOrigin: 1
  heroOrigin_2: 0
  stats:
    attackDamage: 5
    elementalBonusDamage: 0
    critChance: 0.15
    critDamage: 1.5
    speed: 100
    attackRange: 3
    health: 100
    armor: 20
    magicResist: 20
    loo: 50
    looStart: 0
    looPerHitTaken: 5
    looPerHitGiven: 5
    effectivity: 0
    tenacity: 0
    heroLevel: 0
    heroExp: 0
