%YAML 1.1
%TAG !u! tag:unity3d.com,2011:
--- !u!114 &11400000
MonoBehaviour:
  m_ObjectHideFlags: 0
  m_CorrespondingSourceObject: {fileID: 0}
  m_PrefabInstance: {fileID: 0}
  m_PrefabAsset: {fileID: 0}
  m_GameObject: {fileID: 0}
  m_Enabled: 1
  m_EditorHideFlags: 0
  m_Script: {fileID: 11500000, guid: 4936331be05050845b4045874cff835b, type: 3}
  m_Name: Hero_Richard
  m_EditorClassIdentifier: 
  prefab: {fileID: 8676781905885171352, guid: ca77f7f738589324ab5423477abc26ec, type: 3}
  attackProjectile: {fileID: 1597069992993035993, guid: 85891e03d6c87514a98a053eaf190895, type: 3}
  uiname: Richard
  heroID: Richard
  heroClass: 2
  heroClass_2: 0
  heroOrigin: 1
  heroOrigin_2: 0
  stats:
    attackDamage: 5
    elementalBonusDamage: 0
    critChance: 0.15
    critDamage: 1.5
    speed: 100
    attackRange: 3
    health: 100
    armor: 20
    magicResist: 20
    loo: 50
    looStart: 0
    looPerHitTaken: 5
    looPerHitGiven: 5
    effectivity: 0
    tenacity: 0
    heroLevel: 0
    heroExp: 0
