%YAML 1.1
%TAG !u! tag:unity3d.com,2011:
--- !u!114 &11400000
MonoBehaviour:
  m_ObjectHideFlags: 0
  m_CorrespondingSourceObject: {fileID: 0}
  m_PrefabInstance: {fileID: 0}
  m_PrefabAsset: {fileID: 0}
  m_GameObject: {fileID: 0}
  m_Enabled: 1
  m_EditorHideFlags: 0
  m_Script: {fileID: 11500000, guid: 4936331be05050845b4045874cff835b, type: 3}
  m_Name: Hero_Leon
  m_EditorClassIdentifier: 
  prefab: {fileID: 5904177654570877743, guid: 6e58a6cc73ece624884439a578f6268e, type: 3}
  attackProjectile: {fileID: 3347022186734227630, guid: 47840dfac8ea9f84d838cd88e4d82929, type: 3}
  uiname: Leon
  heroID: Leon
  heroClass: 9
  heroClass_2: 0
  heroOrigin: 1
  heroOrigin_2: 0
  stats:
    attackDamage: 5
    elementalBonusDamage: 0
    critChance: 0.15
    critDamage: 1.5
    speed: 100
    attackRange: 9
    health: 100
    armor: 20
    magicResist: 20
    loo: 50
    looStart: 45
    looPerHitTaken: 5
    looPerHitGiven: 5
    effectivity: 0
    tenacity: 0
