%YAML 1.1
%TAG !u! tag:unity3d.com,2011:
--- !u!114 &11400000
MonoBehaviour:
  m_ObjectHideFlags: 0
  m_CorrespondingSourceObject: {fileID: 0}
  m_PrefabInstance: {fileID: 0}
  m_PrefabAsset: {fileID: 0}
  m_GameObject: {fileID: 0}
  m_Enabled: 1
  m_EditorHideFlags: 0
  m_Script: {fileID: 11500000, guid: 4c3ecf6bcd4138e499226792dbad5b1d, type: 3}
  m_Name: ThrowShield
  m_EditorClassIdentifier: 
  icon: {fileID: 5074900417579275715, guid: a286c9d5c5d062542ad44778711c1b6f, type: 3}
  abilityName: ThrowShield
  hero: Tristan
  abilityIndex: 0
