%YAML 1.1
%TAG !u! tag:unity3d.com,2011:
--- !u!114 &11400000
MonoBehaviour:
  m_ObjectHideFlags: 0
  m_CorrespondingSourceObject: {fileID: 0}
  m_PrefabInstance: {fileID: 0}
  m_PrefabAsset: {fileID: 0}
  m_GameObject: {fileID: 0}
  m_Enabled: 1
  m_EditorHideFlags: 0
  m_Script: {fileID: 11500000, guid: abaf1b2ebc3f73d48bbcc3208f0a8c0c, type: 3}
  m_Name: SheepWool
  m_EditorClassIdentifier: 
  ascensionName: Sheep Wool
  ascensionJob: 5
  ascensionStage: 2
