%YAML 1.1
%TAG !u! tag:unity3d.com,2011:
--- !u!1045 &1
EditorBuildSettings:
  m_ObjectHideFlags: 0
  serializedVersion: 2
  m_Scenes:
  - enabled: 1
    path: Assets/Scenes/CampaignScene.unity
    guid: d47fe554764ca95499e7b504af62a717
  - enabled: 1
    path: Assets/Scenes/ExpiditionScene.unity
    guid: 1407715d03019bc45afe24e02fcd9f19
  - enabled: 1
    path: Assets/Scenes/CombatScene.unity
    guid: dc2628122cb34354abcc437c6bf945f6
  - enabled: 1
    path: Assets/Scenes/StageSelection.unity
    guid: adae91630f8b96546868dcc661e0764e
  m_configObjects: {}
