%YAML 1.1
%TAG !u! tag:unity3d.com,2011:
--- !u!114 &11400000
MonoBehaviour:
  m_ObjectHideFlags: 0
  m_CorrespondingSourceObject: {fileID: 0}
  m_PrefabInstance: {fileID: 0}
  m_PrefabAsset: {fileID: 0}
  m_GameObject: {fileID: 0}
  m_Enabled: 1
  m_EditorHideFlags: 0
  m_Script: {fileID: 11500000, guid: 33f4c565ef5fd234789f6a91f02b175d, type: 3}
  m_Name: SwordSlash
  m_EditorClassIdentifier: 
  name: Sword Slash
  skillType: 0
  skillImage: {fileID: 21300000, guid: 1724a564f773c204b946c464923a1211, type: 3}
  skillAreaString:
  - U
  - UR
  - UL
  - M
